design/app/max10_galvano/source/test.vcd
$date
	Fri Dec 18 00:29:11 2020
$end
$version
	Icarus Verilog
$end
$timescale
	1s
$end
$scope module tb $end
$var wire 16 ! pos_dac [15:0] $end
$var reg 1 " clk $end
$var reg 16 # pos_adc [15:0] $end
$var reg 1 $ pos_adc_data_valid $end
$var reg 16 % pos_target [15:0] $end
$var reg 1 & reset $end
$var reg 1 ' spi_new_target_valid $end
$var integer 32 ( i [31:0] $end
$scope module pid $end
$var wire 1 " clk_pid $end
$var wire 16 ) dac_limit [15:0] $end
$var wire 16 * kd [15:0] $end
$var wire 16 + ki [15:0] $end
$var wire 16 , kp [15:0] $end
$var wire 24 - pid_i_saturation [23:0] $end
$var wire 16 . pos_adc [15:0] $end
$var wire 1 $ pos_adc_data_valid $end
$var wire 16 / pos_target [15:0] $end
$var wire 1 ' spi_new_target_valid $end
$var wire 1 & sys_rstn $end
$var wire 16 0 limit1 [15:0] $end
$var wire 16 1 limit0 [15:0] $end
$var reg 48 2 D [47:0] $end
$var reg 48 3 I [47:0] $end
$var reg 48 4 P [47:0] $end
$var reg 8 5 bpann_loop [7:0] $end
$var reg 48 6 error [47:0] $end
$var reg 48 7 error_last [47:0] $end
$var reg 8 8 i [7:0] $end
$var reg 48 9 integrator [47:0] $end
$var reg 8 : j [7:0] $end
$var reg 48 ; pid [47:0] $end
$var reg 2 < pos_adc_data_valid_dly [1:0] $end
$var reg 16 = pos_dac [15:0] $end
$var reg 2 > spi_new_target_valid_dly [1:0] $end
$var reg 4 ? state [3:0] $end
$scope task task_bpnn_f $end
$var reg 16 @ x [15:0] $end
$var reg 16 A y [15:0] $end
$upscope $end
$upscope $end
$upscope $end
$scope module tb $end
$scope module pid $end
$var reg 8 B \w[0] [7:0] $end
$upscope $end
$upscope $end
$scope module tb $end
$scope module pid $end
$var reg 8 C \w[1] [7:0] $end
$upscope $end
$upscope $end
$scope module tb $end
$scope module pid $end
$var reg 8 D \w[2] [7:0] $end
$upscope $end
$upscope $end
$scope module tb $end
$scope module pid $end
$var reg 16 E \x[0] [15:0] $end
$upscope $end
$upscope $end
$scope module tb $end
$scope module pid $end
$var reg 16 F \x[1] [15:0] $end
$upscope $end
$upscope $end
$scope module tb $end
$scope module pid $end
$var reg 16 G \x[2] [15:0] $end
$upscope $end
$upscope $end
$scope module tb $end
$scope module pid $end
$var reg 16 H \x[3] [15:0] $end
$upscope $end
$upscope $end
$scope module tb $end
$scope module pid $end
$var reg 16 I \x[4] [15:0] $end
$upscope $end
$upscope $end
$scope module tb $end
$scope module pid $end
$var reg 16 J \x[5] [15:0] $end
$upscope $end
$upscope $end
$scope module tb $end
$scope module pid $end
$var reg 16 K \x[6] [15:0] $end
$upscope $end
$upscope $end
$scope module tb $end
$scope module pid $end
$var reg 16 L \x[7] [15:0] $end
$upscope $end
$upscope $end
$scope module tb $end
$scope module pid $end
$var reg 16 M \x[8] [15:0] $end
$upscope $end
$upscope $end
$scope module tb $end
$scope module pid $end
$var reg 16 N \e[0] [15:0] $end
$upscope $end
$upscope $end
$scope module tb $end
$scope module pid $end
$var reg 16 O \e[1] [15:0] $end
$upscope $end
$upscope $end
$scope module tb $end
$scope module pid $end
$var reg 16 P \e[2] [15:0] $end
$upscope $end
$upscope $end
$scope module tb $end
$scope module pid $end
$var reg 16 Q \e[3] [15:0] $end
$upscope $end
$upscope $end
$scope module tb $end
$scope module pid $end
$var reg 16 R \e[4] [15:0] $end
$upscope $end
$upscope $end
$scope module tb $end
$scope module pid $end
$var reg 16 S \e[5] [15:0] $end
$upscope $end
$upscope $end
$enddefinitions $end
#0
$dumpvars
bx S
bx R
bx Q
bx P
bx O
bx N
bx M
bx L
bx K
bx J
bx I
bx H
bx G
bx F
bx E
b1111110 D
b1111110 C
b1111110 B
bx A
bx @
b0 ?
bx >
b1000000000000000 =
bx <
b0 ;
b11 :
b0 9
b10 8
b0 7
b0 6
b0 5
bx 4
bx 3
bx 2
b110110001111000 1
b1001001110001000 0
b1111101000 /
b0 .
b1001110001000 -
b10010110000 ,
b111100 +
b1011101110000000 *
b1001110001000 )
b11 (
0'
0&
b1111101000 %
0$
b0 #
0"
b1000000000000000 !
$end
#5
b1111110 D
b1111110 C
b1111110 B
b11 :
b10 8
1"
#10
0"
#15
b1111110 D
b1111110 C
b1111110 B
b11 :
b10 8
1"
#20
0"
#25
b1111110 D
b1111110 C
b1111110 B
b11 :
b10 8
1"
#30
0"
#35
b1111110 D
b1111110 C
b1111110 B
b11 :
b10 8
1"
#40
b11001000 #
b11001000 .
0"
1$
#45
b1111110 D
b1111110 C
b1111110 B
b11 :
b10 8
1"
#50
0"
#55
b1111110 D
b1111110 C
b1111110 B
b11 :
b10 8
1"
#60
0"
#65
b1111110 D
b1111110 C
b1111110 B
b11 :
b10 8
1"
#70
0"
#75
b1111110 D
b1111110 C
b1111110 B
b11 :
b10 8
1"
#80
0"
0$
#85
b1111110 D
b1111110 C
b1111110 B
b11 :
b10 8
1"
#90
0"
#95
b1111110 D
b1111110 C
b1111110 B
b11 :
b10 8
1"
#100
0"
1&
#105
bx0 <
bx0 >
1"
#110
0"
#115
b0 <
b0 >
1"
#120
b110010000 #
b110010000 .
0"
1$
#125
b1 <
1"
#130
0"
#135
b11 <
1"
#140
0"
#145
1"
#150
0"
#155
1"
#160
0"
0$
#165
b10 <
1"
#170
0"
#175
b0 <
1"
#180
0"
#185
1"
#190
0"
#195
1"
#200
b1001011000 #
b1001011000 .
0"
1$
#205
b1 <
1"
#210
0"
#215
b11 <
1"
#220
0"
#225
1"
#230
0"
#235
1"
#240
0"
0$
#245
b10 <
1"
#250
0"
#255
b0 <
1"
#260
0"
#265
1"
#270
0"
#275
1"
#280
b1100100000 #
b1100100000 .
0"
1$
#285
b1 <
1"
#290
0"
#295
b11 <
1"
#300
0"
#305
1"
#310
0"
#315
1"
#320
0"
0$
#325
b10 <
1"
#330
0"
#335
b0 <
1"
#340
0"
#345
1"
#350
0"
#355
1"
#360
b1111101000 #
b1111101000 .
0"
1$
#365
b1 <
1"
#370
0"
#375
b11 <
1"
#380
0"
#385
1"
#390
0"
#395
1"
#400
0"
0$
#405
b10 <
1"
#410
0"
#415
b0 <
1"
#420
0"
#425
1"
#430
0"
#435
1"
#440
b10010110000 #
b10010110000 .
0"
1$
#445
b1 <
1"
#450
0"
#455
b11 <
1"
#460
0"
#465
1"
#470
0"
#475
1"
#480
0"
0$
#485
b10 <
1"
#490
0"
#495
b0 <
1"
#500
0"
#505
1"
#510
0"
#515
1"
#520
b10101111000 #
b10101111000 .
0"
1$
#525
b1 <
1"
#530
0"
#535
b11 <
1"
#540
0"
#545
1"
#550
0"
#555
1"
#560
0"
0$
#565
b10 <
1"
#570
0"
#575
b0 <
1"
#580
0"
#585
1"
#590
0"
#595
1"
#600
b11001000000 #
b11001000000 .
0"
1$
#605
b1 <
1"
#610
0"
#615
b11 <
1"
#620
0"
#625
1"
#630
0"
#635
1"
#640
0"
0$
#645
b10 <
1"
#650
0"
#655
b0 <
1"
#660
0"
#665
1"
#670
0"
#675
1"
#680
b11100001000 #
b11100001000 .
0"
1$
#685
b1 <
1"
#690
0"
#695
b11 <
1"
#700
0"
#705
1"
#710
0"
#715
1"
#720
0"
0$
#725
b10 <
1"
#730
0"
#735
b0 <
1"
#740
0"
#745
1"
#750
0"
#755
1"
#760
b11111010000 #
b11111010000 .
0"
1$
#765
b1 <
1"
#770
0"
#775
b11 <
1"
#780
0"
#785
1"
#790
0"
#795
1"
#800
0"
0$
#805
b10 <
1"
#810
0"
#815
b0 <
1"
#820
0"
#825
1"
#830
0"
#835
1"
#840
b100010011000 #
b100010011000 .
0"
1$
#845
b1 <
1"
#850
0"
#855
b11 <
1"
#860
0"
#865
1"
#870
0"
#875
1"
#880
0"
0$
#885
b10 <
1"
#890
0"
#895
b0 <
1"
#900
0"
#905
1"
#910
0"
#915
1"
#920
b100101100000 #
b100101100000 .
0"
1$
#925
b1 <
1"
#930
0"
#935
b11 <
1"
#940
0"
#945
1"
#950
0"
#955
1"
#960
0"
0$
#965
b10 <
1"
#970
0"
#975
b0 <
1"
#980
0"
#985
1"
#990
0"
#995
1"
#1000
b101000101000 #
b101000101000 .
0"
1$
#1005
b1 <
1"
#1010
0"
#1015
b11 <
1"
#1020
0"
#1025
1"
#1030
0"
#1035
1"
#1040
0"
0$
#1045
b10 <
1"
#1050
0"
#1055
b0 <
1"
#1060
0"
#1065
1"
#1070
0"
#1075
1"
#1080
b101011110000 #
b101011110000 .
0"
1$
#1085
b1 <
1"
#1090
0"
#1095
b11 <
1"
#1100
0"
#1105
1"
#1110
0"
#1115
1"
#1120
0"
0$
#1125
b10 <
1"
#1130
0"
#1135
b0 <
1"
#1140
0"
#1145
1"
#1150
0"
#1155
1"
#1160
b101110111000 #
b101110111000 .
0"
1$
#1165
b1 <
1"
#1170
0"
#1175
b11 <
1"
#1180
0"
#1185
1"
#1190
0"
#1195
1"
#1200
0"
0$
#1205
b10 <
1"
#1210
0"
#1215
b0 <
1"
#1220
0"
#1225
1"
#1230
0"
#1235
1"
#1240
b110010000000 #
b110010000000 .
0"
1$
#1245
b1 <
1"
#1250
0"
#1255
b11 <
1"
#1260
0"
#1265
1"
#1270
0"
#1275
1"
#1280
0"
0$
#1285
b10 <
1"
#1290
0"
#1295
b0 <
1"
#1300
0"
#1305
1"
#1310
0"
#1315
1"
#1320
b110101001000 #
b110101001000 .
0"
1$
#1325
b1 <
1"
#1330
0"
#1335
b11 <
1"
#1340
0"
#1345
1"
#1350
0"
#1355
1"
#1360
0"
0$
#1365
b10 <
1"
#1370
0"
#1375
b0 <
1"
#1380
0"
#1385
1"
#1390
0"
#1395
1"
#1400
b111000010000 #
b111000010000 .
0"
1$
#1405
b1 <
1"
#1410
0"
#1415
b11 <
1"
#1420
0"
#1425
1"
#1430
0"
#1435
1"
#1440
0"
0$
#1445
b10 <
1"
#1450
0"
#1455
b0 <
1"
#1460
0"
#1465
1"
#1470
0"
#1475
1"
#1480
b111011011000 #
b111011011000 .
0"
1$
#1485
b1 <
1"
#1490
0"
#1495
b11 <
1"
#1500
0"
#1505
1"
#1510
0"
#1515
1"
#1520
0"
0$
#1525
b10 <
1"
#1530
0"
#1535
b0 <
1"
#1540
0"
#1545
1"
#1550
0"
#1555
1"
#1560
b111110100000 #
b111110100000 .
0"
1$
#1565
b1 <
1"
#1570
0"
#1575
b11 <
1"
#1580
0"
#1585
1"
#1590
0"
#1595
1"
#1600
0"
0$
#1605
b10 <
1"
#1610
0"
#1615
b0 <
1"
#1620
0"
#1625
1"
#1630
0"
#1635
1"
#1640
b1000001101000 #
b1000001101000 .
0"
1$
#1645
b1 <
1"
#1650
0"
#1655
b11 <
1"
#1660
0"
#1665
1"
#1670
0"
#1675
1"
#1680
0"
0$
#1685
b10 <
1"
#1690
0"
#1695
b0 <
1"
#1700
0"
#1705
1"
#1710
0"
#1715
1"
#1720
b1000100110000 #
b1000100110000 .
0"
1$
#1725
b1 <
1"
#1730
0"
#1735
b11 <
1"
#1740
0"
#1745
1"
#1750
0"
#1755
1"
#1760
0"
0$
#1765
b10 <
1"
#1770
0"
#1775
b0 <
1"
#1780
0"
#1785
1"
#1790
0"
#1795
1"
#1800
b1000111111000 #
b1000111111000 .
0"
1$
#1805
b1 <
1"
#1810
0"
#1815
b11 <
1"
#1820
0"
#1825
1"
#1830
0"
#1835
1"
#1840
0"
0$
#1845
b10 <
1"
#1850
0"
#1855
b0 <
1"
#1860
0"
#1865
1"
#1870
0"
#1875
1"
#1880
b1001011000000 #
b1001011000000 .
0"
1$
#1885
b1 <
1"
#1890
0"
#1895
b11 <
1"
#1900
0"
#1905
1"
#1910
0"
#1915
1"
#1920
0"
0$
#1925
b10 <
1"
#1930
0"
#1935
b0 <
1"
#1940
0"
#1945
1"
#1950
0"
#1955
1"
#1960
b1001110001000 #
b1001110001000 .
0"
1$
#1965
b1 <
1"
#1970
0"
#1975
b11 <
1"
#1980
0"
#1985
1"
#1990
0"
#1995
1"
#2000
0"
0$
1'
#2005
b10 <
b1 >
1"
#2010
0"
#2015
b1 ?
b0 <
b11 >
1"
#2020
0"
#2025
1"
#2030
0"
#2035
1"
#2040
b1010001010000 #
b1010001010000 .
0"
1$
#2045
b1 <
1"
#2050
0"
#2055
b10 ?
b11 <
1"
#2060
0"
#2065
1"
#2070
0"
#2075
1"
#2080
0"
0$
#2085
b10 <
1"
#2090
0"
#2095
b0 <
1"
#2100
0"
#2105
1"
#2110
0"
#2115
1"
#2120
b1010100011000 #
b1010100011000 .
0"
1$
#2125
b1 <
1"
#2130
0"
#2135
b11 ?
b111111111111111111111111111111111110111011010000 6
b11 <
1"
#2140
0"
#2145
b100 ?
b111111111111111111111111111111111110111011010000 9
b111111111111111111111111111100110110100101011000 2
b0 3
b111111111111111111111111111111111110101111011011 4
1"
#2150
0"
#2155
b101 ?
b111111111111111111111111111100110101010100110011 ;
1"
#2160
0"
0$
#2165
b110 ?
b100010011000 G
b101010001100 F
b11011000111100 E
b10 <
1"
#2170
0"
#2175
b111 ?
b1 5
b0 <
b111111110101111 M
b111111110101111 L
b111111110101111 K
b111111011101010 J
b111111011101010 I
b111111011101010 H
b111111110101111 A
b11001011 @
b11 :
b10 8
1"
#2180
0"
#2185
b10 ?
b1001001101111011 !
b1001001101111011 =
1"
#2190
0"
#2195
1"
#2200
b1010111100000 #
b1010111100000 .
0"
1$
#2205
b1 <
1"
#2210
0"
#2215
b11 ?
b111111111111111111111111111111111110111011010000 7
b111111111111111111111111111111111110111000001000 6
b11 <
1"
#2220
0"
#2225
b100 ?
b111111111111111111111111111111111101110011011000 9
b111111111111111111111111111111110110110110000100 2
b111111111111111111111111111111111111111011111110 3
b111111111111111111111111111111111110101011110001 4
1"
#2230
0"
#2235
b101 ?
b1001110001000 9
b111111111111111111111111111111110101011101110011 ;
1"
#2240
0"
0$
#2245
b110 ?
b1100100 G
b101011110000 F
b11011000111100 E
b10 <
1"
#2250
0"
#2255
b111 ?
b10 5
b0 <
b111111110011010 M
b111111110011010 L
b111111110011010 K
b111111110001001 J
b111111110001001 I
b111111110001001 H
b111111110011010 A
b10100000 @
b11 :
b10 8
1"
#2260
0"
#2265
b10 ?
b1001001101111000 !
b1001001101111000 =
1"
#2270
0"
#2275
1"
#2280
b1011010101000 #
b1011010101000 .
0"
1$
#2285
b1 <
1"
#2290
0"
#2295
b11 ?
b111111111111111111111111111111111110111000001000 7
b111111111111111111111111111111111110110101000000 6
b11 <
1"
#2300
0"
#2305
b100 ?
b11001000 9
b100100100 3
b111111111111111111111111111111111110101000000111 4
1"
#2310
0"
#2315
b101 ?
b111111111111111111111111111111110101100010101111 ;
1"
#2320
0"
0$
#2325
b110 ?
b1100100 G
b101101010100 F
b11011000111100 E
b10 <
1"
#2330
0"
#2335
b111 ?
b11 5
b0 <
b1001111 M
b1001111 L
b1001111 K
b111111110111010 J
b111111110111010 I
b111111110111010 H
b1001111 A
b1111111100110001 @
b11 :
b10 8
1"
#2340
0"
#2345
b10 ?
b1000000000001100 !
b1000000000001100 =
1"
#2350
0"
#2355
1"
#2360
b1011101110000 #
b1011101110000 .
0"
1$
#2365
b1 <
1"
#2370
0"
#2375
b11 ?
b111111111111111111111111111111111110110101000000 7
b111111111111111111111111111111111110110001111000 6
b11 <
1"
#2380
0"
#2385
b100 ?
b111111111111111111111111111111111110110101000000 9
b1011 3
b111111111111111111111111111111111110100100011100 4
1"
#2390
0"
#2395
b101 ?
b111111111111111111111111111111110101011010101011 ;
1"
#2400
0"
0$
#2405
b110 ?
b1100100 G
b101110111000 F
b11011000111100 E
b10 <
1"
#2410
0"
#2415
b111 ?
b100 5
b0 <
b1000100 M
b1000100 L
b1000100 K
b1011100 J
b1011100 I
b1011100 H
b1000100 A
b1111111100001111 @
b11 :
b10 8
1"
#2420
0"
#2425
b10 ?
b1000000000001010 !
b1000000000001010 =
1"
#2430
0"
#2435
1"
#2440
b1100000111000 #
b1100000111000 .
0"
1$
#2445
b1 <
1"
#2450
0"
#2455
b11 ?
b111111111111111111111111111111111110110001111000 7
b111111111111111111111111111111111110101110110000 6
b11 <
1"
#2460
0"
#2465
b100 ?
b111111111111111111111111111111111101100011110000 9
b111111111111111111111111111111111111111011100110 3
b111111111111111111111111111111111110100000110010 4
1"
#2470
0"
#2475
b101 ?
b1001110001000 9
b111111111111111111111111111111110101010010011100 ;
1"
#2480
0"
0$
#2485
b110 ?
b1100100 G
b110000011100 F
b11011000111100 E
b10 <
1"
#2490
0"
#2495
b111 ?
b101 5
b0 <
b111111101010001 M
b111111101010001 L
b111111101010001 K
b11001101 J
b11001101 I
b11001101 H
b111111101010001 A
b1011101 @
b11 :
b10 8
1"
#2500
0"
#2505
b10 ?
b1001001101101101 !
b1001001101101101 =
1"
#2510
0"
#2515
1"
#2520
b1100100000000 #
b1100100000000 .
0"
1$
#2525
b1 <
1"
#2530
0"
#2535
b11 ?
b111111111111111111111111111111111110101110110000 7
b111111111111111111111111111111111110101011101000 6
b11 <
1"
#2540
0"
#2545
b100 ?
b111111111111111111111111111111111111111001110000 9
b100100100 3
b111111111111111111111111111111111110011101000111 4
1"
#2550
0"
#2555
b101 ?
b111111111111111111111111111111110101010111101111 ;
1"
#2560
0"
0$
#2565
b110 ?
b1100100 G
b110010000000 F
b11011000111100 E
b10 <
1"
#2570
0"
#2575
b111 ?
b110 5
b0 <
b111111110001010 M
b111111110001010 L
b111111110001010 K
b111110011001100 J
b111110011001100 I
b111110011001100 H
b111111110001010 A
b10001010 @
b11 :
b10 8
1"
#2580
0"
#2585
b10 ?
b1001001101110101 !
b1001001101110101 =
1"
#2590
0"
#2595
1"
#2600
b1100111001000 #
b1100111001000 .
0"
1$
#2605
b1 <
1"
#2610
0"
#2615
b11 ?
b111111111111111111111111111111111110101011101000 7
b111111111111111111111111111111111110101000100000 6
b11 <
1"
#2620
0"
#2625
b100 ?
b111111111111111111111111111111111110100010010000 9
b111111111111111111111111111111111111111111101000 3
b111111111111111111111111111111111110011001011101 4
1"
#2630
0"
#2635
b101 ?
b1001110001000 9
b111111111111111111111111111111110101001111001001 ;
1"
#2640
0"
0$
#2645
b110 ?
b1100100 G
b110011100100 F
b11011000111100 E
b10 <
1"
#2650
0"
#2655
b111 ?
b111 5
b0 <
b111111101011111 M
b111111101011111 L
b111111101011111 K
b111111101110101 J
b111111101110101 I
b111111101110101 H
b111111101011111 A
b1100101 @
b11 :
b10 8
1"
#2660
0"
#2665
b10 ?
b1001001101101111 !
b1001001101101111 =
1"
#2670
0"
#2675
1"
#2680
b1101010010000 #
b1101010010000 .
0"
1$
#2685
b1 <
1"
#2690
0"
#2695
b11 ?
b111111111111111111111111111111111110101000100000 7
b111111111111111111111111111111111110100101011000 6
b11 <
1"
#2700
0"
#2705
b100 ?
b111111111111111111111111111111111111110011100000 9
b100100100 3
b111111111111111111111111111111111110010101110011 4
1"
#2710
0"
#2715
b101 ?
b111111111111111111111111111111110101010000011011 ;
1"
#2720
0"
0$
#2725
b110 ?
b1100100 G
b110101001000 F
b11011000111100 E
b10 <
1"
#2730
0"
#2735
b111 ?
b1000 5
b0 <
b1001001 M
b1001001 L
b1001001 K
b111111110110100 J
b111111110110100 I
b111111110110100 H
b1001001 A
b1111111100011111 @
b11 :
b10 8
1"
#2740
0"
#2745
b10 ?
b1000000000001011 !
b1000000000001011 =
1"
#2750
0"
#2755
1"
#2760
b1101101011000 #
b1101101011000 .
0"
1$
#2765
b1 <
1"
#2770
0"
#2775
b11 ?
b111111111111111111111111111111111110100101011000 7
b111111111111111111111111111111111110100010010000 6
b11 <
1"
#2780
0"
#2785
b100 ?
b111111111111111111111111111111111110010101110000 9
b111111111111111111111111111111111111111111010001 3
b111111111111111111111111111111111110010010001000 4
1"
#2790
0"
#2795
b101 ?
b1001110001000 9
b111111111111111111111111111111110101000111011101 ;
1"
#2800
0"
0$
#2805
b110 ?
b1100100 G
b110110101100 F
b11011000111100 E
b10 <
1"
#2810
0"
#2815
b111 ?
b1001 5
b0 <
b111111110111101 M
b111111110111101 L
b111111110111101 K
b1010011 J
b1010011 I
b1010011 H
b111111110111101 A
b11110101 @
b11 :
b10 8
1"
#2820
0"
#2825
b10 ?
b1001001101111101 !
b1001001101111101 =
1"
#2830
0"
#2835
1"
#2840
b1110000100000 #
b1110000100000 .
0"
1$
#2845
b1 <
1"
#2850
0"
#2855
b11 ?
b111111111111111111111111111111111110100010010000 7
b111111111111111111111111111111111110011111001000 6
b11 <
1"
#2860
0"
#2865
b100 ?
b111111111111111111111111111111111111101101010000 9
b100100100 3
b111111111111111111111111111111111110001110011110 4
1"
#2870
0"
#2875
b101 ?
b111111111111111111111111111111110101001001000110 ;
1"
#2880
0"
0$
#2885
b110 ?
b1100100 G
b111000010000 F
b11011000111100 E
b10 <
1"
#2890
0"
#2895
b111 ?
b1010 5
b0 <
b1000110101 M
b1000110101 L
b1000110101 K
b10100100 J
b10100100 I
b10100100 H
b1000110101 A
b1111111111100100 @
b11 :
b10 8
1"
#2900
0"
#2905
b10 ?
b1000000001010110 !
b1000000001010110 =
1"
#2910
0"
#2915
1"
#2920
b1110011101000 #
b1110011101000 .
0"
1$
#2925
b1 <
1"
#2930
0"
#2935
b11 ?
b111111111111111111111111111111111110011111001000 7
b111111111111111111111111111111111110011100000000 6
b11 <
1"
#2940
0"
#2945
b100 ?
b111111111111111111111111111111111110001001010000 9
b111111111111111111111111111111111111111110111001 3
b111111111111111111111111111111111110001010110100 4
1"
#2950
0"
#2955
b101 ?
b1001110001000 9
b111111111111111111111111111111110100111111110001 ;
1"
#2960
0"
0$
#2965
b110 ?
b1100100 G
b111001110100 F
b11011000111100 E
b10 <
1"
#2970
0"
#2975
b111 ?
b1011 5
b0 <
b111111110000000 M
b111111110000000 L
b111111110000000 K
b10000000000000 J
b10000000000000 I
b10000000000000 H
b111111110000000 A
b10000000 @
b11 :
b10 8
1"
#2980
0"
#2985
b1 S
b1111111111111111 R
b1 Q
b1000 ?
b1000000000000000 !
b1000000000000000 =
1"
#2990
0"
#2995
b1001 ?
b1111111110011111 P
b1111111110011111 O
b1111111110011111 N
b11 :
1"
#3000
b1110110110000 #
b1110110110000 .
0"
1$
#3005
b0 ?
b1111110 D
b1111110 C
b1111110 B
b1 <
b11 :
b10 8
1"
#3010
0"
#3015
b11 <
1"
#3020
0"
#3025
1"
#3030
0"
#3035
1"
#3040
0"
0$
#3045
b10 <
1"
#3050
0"
#3055
b0 <
1"
#3060
0"
#3065
1"
#3070
0"
#3075
1"
#3080
b1111001111000 #
b1111001111000 .
0"
1$
#3085
b1 <
1"
#3090
0"
#3095
b11 <
1"
#3100
0"
#3105
1"
#3110
0"
#3115
1"
#3120
0"
0$
#3125
b10 <
1"
#3130
0"
#3135
b0 <
1"
#3140
0"
#3145
1"
#3150
0"
#3155
1"
#3160
b1111101000000 #
b1111101000000 .
0"
1$
#3165
b1 <
1"
#3170
0"
#3175
b11 <
1"
#3180
0"
#3185
1"
#3190
0"
#3195
1"
#3200
0"
0$
#3205
b10 <
1"
#3210
0"
#3215
b0 <
1"
#3220
0"
#3225
1"
#3230
0"
#3235
1"
#3240
b10000000001000 #
b10000000001000 .
0"
1$
#3245
b1 <
1"
#3250
0"
#3255
b11 <
1"
#3260
0"
#3265
1"
#3270
0"
#3275
1"
#3280
0"
0$
#3285
b10 <
1"
#3290
0"
#3295
b0 <
1"
#3300
0"
#3305
1"
#3310
0"
#3315
1"
#3320
b10000011010000 #
b10000011010000 .
0"
1$
#3325
b1 <
1"
#3330
0"
#3335
b11 <
1"
#3340
0"
#3345
1"
#3350
0"
#3355
1"
#3360
0"
0$
#3365
b10 <
1"
#3370
0"
#3375
b0 <
1"
#3380
0"
#3385
1"
#3390
0"
#3395
1"
#3400
b10000110011000 #
b10000110011000 .
0"
1$
#3405
b1 <
1"
#3410
0"
#3415
b11 <
1"
#3420
0"
#3425
1"
#3430
0"
#3435
1"
#3440
0"
0$
#3445
b10 <
1"
#3450
0"
#3455
b0 <
1"
#3460
0"
#3465
1"
#3470
0"
#3475
1"
#3480
b10001001100000 #
b10001001100000 .
0"
1$
#3485
b1 <
1"
#3490
0"
#3495
b11 <
1"
#3500
0"
#3505
1"
#3510
0"
#3515
1"
#3520
0"
0$
#3525
b10 <
1"
#3530
0"
#3535
b0 <
1"
#3540
0"
#3545
1"
#3550
0"
#3555
1"
#3560
b10001100101000 #
b10001100101000 .
0"
1$
#3565
b1 <
1"
#3570
0"
#3575
b11 <
1"
#3580
0"
#3585
1"
#3590
0"
#3595
1"
#3600
0"
0$
#3605
b10 <
1"
#3610
0"
#3615
b0 <
1"
#3620
0"
#3625
1"
#3630
0"
#3635
1"
#3640
b10001111110000 #
b10001111110000 .
0"
1$
#3645
b1 <
1"
#3650
0"
#3655
b11 <
1"
#3660
0"
#3665
1"
#3670
0"
#3675
1"
#3680
0"
0$
#3685
b10 <
1"
#3690
0"
#3695
b0 <
1"
#3700
0"
#3705
1"
#3710
0"
#3715
1"
#3720
b10010010111000 #
b10010010111000 .
0"
1$
#3725
b1 <
1"
#3730
0"
#3735
b11 <
1"
#3740
0"
#3745
1"
#3750
0"
#3755
1"
#3760
0"
0$
#3765
b10 <
1"
#3770
0"
#3775
b0 <
1"
#3780
0"
#3785
1"
#3790
0"
#3795
1"
#3800
b10010110000000 #
b10010110000000 .
0"
1$
#3805
b1 <
1"
#3810
0"
#3815
b11 <
1"
#3820
0"
#3825
1"
#3830
0"
#3835
1"
#3840
0"
0$
#3845
b10 <
1"
#3850
0"
#3855
b0 <
1"
#3860
0"
#3865
1"
#3870
0"
#3875
1"
#3880
b10011001001000 #
b10011001001000 .
0"
1$
#3885
b1 <
1"
#3890
0"
#3895
b11 <
1"
#3900
0"
#3905
1"
#3910
0"
#3915
1"
#3920
0"
0$
#3925
b10 <
1"
#3930
0"
#3935
b0 <
1"
#3940
0"
#3945
1"
#3950
0"
#3955
1"
#3960
b10011100010000 #
b10011100010000 .
0"
1$
#3965
b1 <
1"
#3970
0"
#3975
b11 <
1"
#3980
0"
#3985
1"
#3990
0"
#3995
1"
#4000
0"
0$
0'
#4005
b10 <
b10 >
1"
#4010
0"
#4015
b0 <
b0 >
1"
#4020
0"
#4025
1"
#4030
0"
#4035
1"
#4040
b10011111011000 #
b10011111011000 .
0"
1$
#4045
b1 <
1"
#4050
0"
#4055
b11 <
1"
#4060
0"
#4065
1"
#4070
0"
#4075
1"
#4080
0"
0$
#4085
b10 <
1"
#4090
0"
#4095
b0 <
1"
#4100
0"
#4105
1"
#4110
0"
#4115
1"
#4120
b10100010100000 #
b10100010100000 .
0"
1$
#4125
b1 <
1"
#4130
0"
#4135
b11 <
1"
#4140
0"
#4145
1"
#4150
0"
#4155
1"
#4160
0"
0$
#4165
b10 <
1"
#4170
0"
#4175
b0 <
1"
#4180
0"
#4185
1"
#4190
0"
#4195
1"
#4200
b10100101101000 #
b10100101101000 .
0"
1$
#4205
b1 <
1"
#4210
0"
#4215
b11 <
1"
#4220
0"
#4225
1"
#4230
0"
#4235
1"
#4240
0"
0$
#4245
b10 <
1"
#4250
0"
#4255
b0 <
1"
#4260
0"
#4265
1"
#4270
0"
#4275
1"
#4280
b10101000110000 #
b10101000110000 .
0"
1$
#4285
b1 <
1"
#4290
0"
#4295
b11 <
1"
#4300
0"
#4305
1"
#4310
0"
#4315
1"
#4320
0"
0$
#4325
b10 <
1"
#4330
0"
#4335
b0 <
1"
#4340
0"
#4345
1"
#4350
0"
#4355
1"
#4360
b10101011111000 #
b10101011111000 .
0"
1$
#4365
b1 <
1"
#4370
0"
#4375
b11 <
1"
#4380
0"
#4385
1"
#4390
0"
#4395
1"
#4400
0"
0$
#4405
b10 <
1"
#4410
0"
#4415
b0 <
1"
#4420
0"
#4425
1"
#4430
0"
#4435
1"
#4440
b10101111000000 #
b10101111000000 .
0"
1$
#4445
b1 <
1"
#4450
0"
#4455
b11 <
1"
#4460
0"
#4465
1"
#4470
0"
#4475
1"
#4480
0"
0$
#4485
b10 <
1"
#4490
0"
#4495
b0 <
1"
#4500
0"
#4505
1"
#4510
0"
#4515
1"
#4520
b10110010001000 #
b10110010001000 .
0"
1$
#4525
b1 <
1"
#4530
0"
#4535
b11 <
1"
#4540
0"
#4545
1"
#4550
0"
#4555
1"
#4560
0"
0$
#4565
b10 <
1"
#4570
0"
#4575
b0 <
1"
#4580
0"
#4585
1"
#4590
0"
#4595
1"
#4600
b10110101010000 #
b10110101010000 .
0"
1$
#4605
b1 <
1"
#4610
0"
#4615
b11 <
1"
#4620
0"
#4625
1"
#4630
0"
#4635
1"
#4640
0"
0$
#4645
b10 <
1"
#4650
0"
#4655
b0 <
1"
#4660
0"
#4665
1"
#4670
0"
#4675
1"
#4680
b10111000011000 #
b10111000011000 .
0"
1$
#4685
b1 <
1"
#4690
0"
#4695
b11 <
1"
#4700
0"
#4705
1"
#4710
0"
#4715
1"
#4720
0"
0$
#4725
b10 <
1"
#4730
0"
#4735
b0 <
1"
#4740
0"
#4745
1"
#4750
0"
#4755
1"
#4760
b10111011100000 #
b10111011100000 .
0"
1$
#4765
b1 <
1"
#4770
0"
#4775
b11 <
1"
#4780
0"
#4785
1"
#4790
0"
#4795
1"
#4800
0"
0$
#4805
b10 <
1"
#4810
0"
#4815
b0 <
1"
#4820
0"
#4825
1"
#4830
0"
#4835
1"
#4840
b10111110101000 #
b10111110101000 .
0"
1$
#4845
b1 <
1"
#4850
0"
#4855
b11 <
1"
#4860
0"
#4865
1"
#4870
0"
#4875
1"
#4880
0"
0$
#4885
b10 <
1"
#4890
0"
#4895
b0 <
1"
#4900
0"
#4905
1"
#4910
0"
#4915
1"
#4920
b11000001110000 #
b11000001110000 .
0"
1$
